
{
    "current_page": 1,
    "data": [
      {
        "id": 1,
        "title": "Web Developer",
        "firstname": "John Michael",
        "lastname": "Dela Cruz",
        "practice_name": "CodeCraft Solutions.",
        "provider_specialty": "Full-stack Web Development.",
        "contact_number": "+639225078248",
        "email": "johnmichaeldelacruz0903@gmail.com"
      },

      {
        "id": 2,
        "title": "Hair Dresser",
        "firstname": "Jhoii",
        "lastname": "Dela Cruz",
        "practice_name": "Styles Salon",
        "provider_specialty": "Hair Cutting, Styling, Coloring, and Treatments",
        "contact_number": "+19735887538",
        "email": "jhoiidelacruz27@gmail.com"
      },

      {
        "id": 3,
        "title": "Tech Support",
        "firstname": "Jerico",
        "lastname": "Rodriguez",
        "practice_name": "TechMaster Solutions.",
        "provider_specialty": "IT Troubleshooting and Support.",
        "contact_number": "+19735887538",
        "email": "hrau@gmail.com"
      },

      {
        "id": 4,
        "title": "MD",
        "firstname": "Elwyn",
        "lastname": "Reynolds",
        "practice_name": "Et harum ipsam aliquam est laboriosam ullam.",
        "provider_specialty": "Sit sint ut sunt et dignissimos magni quasi.",
        "contact_number": "+19735887538",
        "email": "hrau@gmail.com"
      },

      {
        "id": 5,
        "title": "MD",
        "firstname": "Elwyn",
        "lastname": "Reynolds",
        "practice_name": "Et harum ipsam aliquam est laboriosam ullam.",
        "provider_specialty": "Sit sint ut sunt et dignissimos magni quasi.",
        "contact_number": "+19735887538",
        "email": "hrau@gmail.com"
      },

      {
        "id": 6,
        "title": "MD",
        "firstname": "Elwyn",
        "lastname": "Reynolds",
        "practice_name": "Et harum ipsam aliquam est laboriosam ullam.",
        "provider_specialty": "Sit sint ut sunt et dignissimos magni quasi.",
        "contact_number": "+19735887538",
        "email": "hrau@gmail.com"
      }
     


    ],
    "first_page_url": "https://api.mydrsappt.com/api/v1/doctors?page=1",
    "from": 1,
    "last_page": 4,
    "last_page_url": "https://api.mydrsappt.com/api/v1/doctors?page=4",
    "links": [
      {
        "url": null,
        "label": "&laquo; Previous",
        "active": false
      },
      {
        "url": "https://api.mydrsappt.com/api/v1/doctors?page=1",
        "label": "1",
        "active": true
      },
      {
        "url": "https://api.mydrsappt.com/api/v1/doctors?page=2",
        "label": "2",
        "active": false
      },
      {
        "url": "https://api.mydrsappt.com/api/v1/doctors?page=3",
        "label": "3",
        "active": false
      },
      {
        "url": "https://api.mydrsappt.com/api/v1/doctors?page=4",
        "label": "4",
        "active": false
      },
      {
        "url": "https://api.mydrsappt.com/api/v1/doctors?page=2",
        "label": "Next &raquo;",
        "active": false
      }
    ],
    "next_page_url": "https://api.mydrsappt.com/api/v1/doctors?page=2",
    "path": "https://api.mydrsappt.com/api/v1/doctors",
    "per_page": 15,
    "prev_page_url": null,
    "to": 15,
    "total": 59
  }